{
    "app-id": "io.gitlab.librewolf-community",
    "runtime": "org.gnome.Platform",
    "runtime-version": "3.38",
    "sdk": "org.gnome.Sdk",
    "command": "librewolf",
    "rename-desktop-file": "LibreWolf.desktop",
    "rename-appdata-file": "LibreWolf.appdata.xml",
    "rename-icon": "io.gitlab.librewolf-community",
    "modules": [
        "content/shared-modules/dbus-glib/dbus-glib-0.110.json",
        {
            "name": "librewolf",
            "buildsystem": "simple",
            "build-commands": [
                "mkdir -p /app/share && mv librewolf -t /app/share",
                "mv share/appdata /app/share",
                "mv share/applications /app/share",
                "mv share/icons /app/share",
                "mv share/metainfo /app/share",
                "mkdir -p /app/bin && ln -s /app/share/librewolf/librewolf /app/bin/"
            ],
            "sources": [
                {
                    "type": "dir",
                    "path": "source"
                }
            ]
        }
    ],
    "finish-args": [
        "--share=ipc",
        "--socket=wayland",
        "--socket=fallback-x11",
        "--socket=pcsc",
        "--socket=pulseaudio",
        "--persist=.librewolf",
        "--persist=.mozilla",
        "--filesystem=xdg-download:rw",
        "--filesystem=xdg-run/pipewire-0",
        "--device=dri",
        "--filesystem=~/.config/dconf:ro",
        "--env=DCONF_USER_CONFIG_DIR=.config/dconf",
        "--talk-name=org.freedesktop.FileManager1",
        "--system-talk-name=org.freedesktop.NetworkManager",
        "--talk-name=org.a11y.Bus",
        "--talk-name=org.gnome.SessionManager",
        "--talk-name=org.freedesktop.ScreenSaver",
        "--talk-name=org.gtk.vfs.*",
        "--socket=session-bus",
        "--env=MOZ_ENABLE_WAYLAND=1",
        "--share=network"
    ]
}
